42625.58333333349,0
42625.58333333349,41
42626.47916666651,41
42626.47916666651,0
42626.5625,0
42626.5625,41
42626.75,41
42626.75,0
42627.41666666651,0
42627.41666666651,41
42632.70833333349,41
42632.70833333349,0
42634.58333333349,0
42634.58333333349,41
42646.16666666651,41
42646.16666666651,0
42646.41666666651,0
42646.41666666651,41
42655.39583333349,41
42655.39583333349,0
42655.4375,0
42655.4375,41
42655.45833333349,41
42655.45833333349,0
42655.58333333349,0
42655.58333333349,41
42656.1875,41
42656.1875,0
42656.4375,0
42656.4375,41
42656.54166666651,41
42656.54166666651,0
42656.58333333349,0
42656.58333333349,41
42657.6020833333,41
42657.6020833333,0
42660.64583333349,0
42660.64583333349,41
42661.27083333349,41
42661.27083333349,0
42661.35416666651,0
42661.35416666651,41
42681.4375,41
42681.4375,0
43010.652418981306,0
43010.652418981306,10.2377
43010.66292824084,10.2377
43010.66292824084,0
43011.56300925929,0
43011.56300925929,36.0819
43011.67318287026,36.0819
43011.67318287026,0
43020.51339120371,0
43020.51339120371,59.6979
43020.669502314646,59.6979
43020.669502314646,0
43024.52445601858,0
43024.52445601858,59.3089
43024.609953703824,59.3089
43024.609953703824,0
43025.42355324095,0
43025.42355324095,42.37380000000001
43028.65741898166,42.37380000000001
43028.65741898166,0
43052.37402777793,0
43052.37402777793,34.8785
43052.989687500056,34.8785
43052.989687500056,0
43053.410729166586,0
43053.410729166586,56.746
43060.57922453713,56.746
43060.57922453713,0
43074.5515740742,0
43074.5515740742,71.1471
43074.55238425918,71.1471
43074.55238425918,0
43074.62184027769,0
43074.62184027769,44.199999999999996
43074.62236111099,44.199999999999996
43074.62236111099,0
43080.51886574086,0
43080.51886574086,56.6531
43080.7314351853,56.6531
43080.7314351853,0
43081.47391203698,0
43081.47391203698,56.35660000000001
43083.5565856481,56.35660000000001
43083.5565856481,0
