42521.5006944444,0
42521.5006944444,30
42521.5006944444,30
42521.5006944444,30
42521.541736111045,30
42521.541736111045,0
42521.5006944444,0
42521.5006944444,0
42521.5006944444,0
42521.5006944444,0
42521.541736111045,0
42521.541736111045,0
42521.541782407556,0
42521.541782407556,0
42521.58354166662,0
42521.58354166662,50
42521.583564814646,50
42521.583564814646,50
42521.62511574058,50
42521.62511574058,0
42521.62511574058,0
42521.62511574058,0
42521.690833333414,0
42521.690833333414,70
42521.690972222015,70
42521.690972222015,70
42521.73414351838,70
42521.73414351838,0
42521.73414351838,0
42521.73414351838,0
42522.417245370336,0
42522.417245370336,58.00000000000001
42522.417245370336,58.00000000000001
42522.417245370336,58.00000000000001
42523.423125000205,58.00000000000001
42523.423125000205,0
42523.42314814823,0
42523.42314814823,0
42524.46666666679,0
42524.46666666679,0
42594.64236111101,0
42594.64236111101,85.71429999999998
42594.66666666651,85.71429999999998
42594.66666666651,0
42635.58333333349,0
42635.58333333349,25
42635.66666666651,25
42635.66666666651,0
42683.472222222015,0
42683.472222222015,85.71429999999998
42683.52083333349,85.71429999999998
42683.52083333349,0
43010.672129629645,0
43010.672129629645,-66.5629
43010.70940972213,-66.5629
43010.70940972213,0
43011.63494212972,0
43011.63494212972,-45.56999999999999
43011.66759259254,-45.56999999999999
43011.66759259254,0
43019.6224074075,0
43019.6224074075,-90.4511
43019.693587963004,-90.4511
43019.693587963004,0
43020.65476851864,0
43020.65476851864,-53.2875
43020.68069444457,-53.2875
43020.68069444457,0
43025.46372685162,0
43025.46372685162,-44.96960000000001
43027.50112268515,-44.96960000000001
43027.50112268515,0
43039.40614583343,0
43039.40614583343,-29.0624
43039.50412037037,-29.0624
43039.50412037037,0
43066.55229166662,0
43066.55229166662,-68.5653
43075.480706018396,-68.5653
43075.480706018396,0
