42932.33333333349,0
42932.33333333349,50
42932.375,50
42932.375,70
42932.41666666651,70
42932.41666666651,90
42932.45833333349,90
42932.45833333349,0
42932.5854166667,0
42932.5854166667,90
42933.5854166667,90
42933.5854166667,0
43040.42708333349,0
43040.42708333349,90
43040.75,90
43040.75,0
43041.41666666651,0
43041.41666666651,90
43046.5625,90
43046.5625,0
43047.41666666651,0
43047.41666666651,-19.99635277777778
43047.42708333349,-19.99635277777778
43047.42708333349,0
