42585.3756944444,0
42585.41652777791,0
42585.41652777791,0
42585.3756944444,0
42585.3756944444,0
42585.3756944444,0
42585.3756944444,0
42585.41652777791,0
42585.41652777791,32
42585.41655092593,32
42585.41655092593,32
42585.459097222425,32
42585.459097222425,50
42585.45914351847,50
42585.45914351847,50
42585.500902778,50
42585.500902778,67.99999999999999
42585.500925926026,67.99999999999999
42585.500925926026,67.99999999999999
42585.54152777791,67.99999999999999
42585.54152777791,0
42585.54155092593,0
42585.54155092593,0
42585.62486111093,0
42585.62486111093,61
42585.62488425942,61
42585.62488425942,61
42586.62763888901,61
42586.62763888901,0
42586.62766203703,0
42586.62766203703,0
42587.597916666884,0
42587.597916666884,0
42614.402777777985,0
42614.402777777985,75
42614.430555555504,75
42614.430555555504,0
42718.625,0
42718.625,-30.147300000000005
42726.13587962976,-30.147300000000005
42726.13587962976,0
42740.6402777778,0
42740.6402777778,-33.24049999999999
42773.97034722241,-33.24049999999999
42773.97034722241,0
42787.5229166667,0
42787.5229166667,-37.5938
42853.19884259254,-37.5938
42853.19884259254,0
42885.47152777761,0
42885.47152777761,-37.517599999999995
42912.944756944664,-37.517599999999995
42912.944756944664,0
43011.635486111045,0
43011.635486111045,-2.81738
43011.673715277575,-2.81738
43011.673715277575,0
43020.44726851862,0
43020.44726851862,-33.2082
43020.66305555543,-33.2082
43020.66305555543,0
43024.55834490759,0
43024.55834490759,-66.7059
43024.67001157394,-66.7059
43024.67001157394,0
43025.41925925948,0
43025.41925925948,-8.02839
43025.524479166605,-8.02839
43025.524479166605,0
43026.58160879649,0
43026.58160879649,-24.4562
43027.64271990722,-24.4562
43027.64271990722,-78.6713
43028.6305324072,-78.6713
43028.6305324072,0
43052.39179398166,0
43052.39179398166,-42.8049
43052.99084490724,-42.8049
43052.99084490724,0
43053.389583333395,0
43053.389583333395,-68.36750000000002
43060.56983796274,-68.36750000000002
43060.56983796274,0
43080.455798611045,0
43080.455798611045,-107.16899999999998
43081.35644675931,-107.16899999999998
43081.35644675931,0
43081.43986111134,0
43081.43986111134,-98.77720000000001
43083.64231481496,-98.77720000000001
43083.64231481496,0
