2456919.90625,0
2456919.90625,142.07
2456920,142.07
2456920,0
2456922.9270833335,0
2456922.9270833335,147.88
2456923.1666666665,147.88
2456923.1666666665,0
2456928.8645833335,0
2456928.8645833335,72.84
2456929.1875,72.84
2456929.1875,0
2456929.8958333335,0
2456929.8958333335,94.46
2456930.0625,94.46
2456930.0625,0
2456930.1458333335,0
2456930.1458333335,122.67
2456930.1666666665,122.67
2456930.1666666665,0
2456931.845833333,0
2456931.845833333,19.75
2456931.9305555555,19.75
2456931.9305555555,36.64000000000001
2456932.017361111,36.64000000000001
2456932.017361111,59.92000000000001
2456932.104861111,59.92000000000001
2456932.104861111,75.48
2456932.190972222,75.48
2456932.190972222,97.63999999999999
2456932.2763888887,97.63999999999999
2456932.2763888887,0
2456933.8388888887,0
2456933.8388888887,95.73
2456934.8381944443,95.73
2456934.8381944443,0
2456935.861111111,0
2456935.861111111,81
2456987.8756944444,81
2456987.8756944444,0
2456992.959027778,0
2456992.959027778,81
2457001.959027778,81
2457001.959027778,120
2457003.917361111,120
2457003.917361111,0
2457328.9618055555,0
2457328.9618055555,80.77200000000002
2457329.499988426,80.77200000000002
2457329.499988426,0
2457329.5,0
2457329.5,82.8861
2457330.499988426,82.8861
2457330.499988426,0
2457330.5,0
2457330.5,87.1521
2457331.499988426,87.1521
2457331.499988426,0
2457331.5,0
2457331.5,78.3514
2457332.499988426,78.3514
2457332.499988426,0
2457332.5,0
2457332.5,78.9576
2457333.499988426,78.9576
2457333.499988426,0
2457333.5,0
2457333.5,82.2222
2457334.499988426,82.2222
2457334.499988426,0
2457334.5,0
2457334.5,83.2708
2457335.499988426,83.2708
2457335.499988426,0
2457335.5,0
2457335.5,80.7222
2457336.499988426,80.7222
2457336.499988426,0
2457336.5,0
2457336.5,79.2083
2457337.499988426,79.2083
2457337.499988426,0
2457337.5,0
2457337.5,84.5382
2457338.499988426,84.5382
2457338.499988426,0
2457338.5,0
2457338.5,82.9826
2457339.499988426,82.9826
2457339.499988426,0
2457339.5,0
2457339.5,80.20140000000002
2457340.499988426,80.20140000000002
2457340.499988426,0
2457340.5,0
2457340.5,80.9375
2457341.499988426,80.9375
2457341.499988426,0
2457341.5,0
2457341.5,78.36810000000001
2457342.499988426,78.36810000000001
2457342.499988426,0
2457342.5,0
2457342.5,77.86810000000001
2457343.499988426,77.86810000000001
2457343.499988426,0
2457343.5,0
2457343.5,22.349999999999998
2457343.8125,22.349999999999998
2457343.8125,0
2457344.9305555555,0
2457344.9305555555,17.5403
2457345.1319444445,17.5403
2457345.1319444445,0
2457567.6666666665,0
2457567.6666666665,88.5
2457569.8333333335,88.5
2457569.8333333335,0
2457575.9583333335,0
2457575.9583333335,81
2457591.0416666665,81
2457591.0416666665,0
2457591.9131944445,0
2457591.9131944445,81
2457604.3125,81
2457604.3125,0
2457604.8125,0
2457604.8125,81
2457681.9583333335,81
2457681.9583333335,0
2457737.1354166665,0
2457737.1354166665,67.7513
2457744.6393981483,67.7513
2457744.6393981483,0
2457759.109722222,0
2457759.109722222,64.5637
2457792.473113426,64.5637
2457792.473113426,0
2457806.0090277777,0
2457806.0090277777,73.7119
2457871.528414352,73.7119
2457871.528414352,0
2457903.967361111,0
2457903.967361111,74.5589
2457905.4833796294,74.5589
2457905.4833796294,0
2457905.9125,0
2457905.9125,73.401
2457931.905347222,73.401
2457931.905347222,0
2458029.1224189815,0
2458029.1224189815,95.18999999999998
2458029.209965278,95.18999999999998
2458029.209965278,0
2458030.113020833,0
2458030.113020833,64.2334
2458030.1731134257,64.2334
2458030.1731134257,0
2458039.036203704,0
2458039.036203704,74.21
2458039.171863426,74.21
2458039.171863426,0
2458043.0041435184,0
2458043.0041435184,63.9374
2458043.1098842593,63.9374
2458043.1098842593,0
2458043.923449074,0
2458043.923449074,54.024300000000004
2458047.157372685,54.024300000000004
2458047.157372685,0
2458070.8739699074,0
2458070.8739699074,62.479800000000004
2458071.4499305557,62.479800000000004
2458071.4499305557,0
2458071.910648148,0
2458071.910648148,73.5631
2458079.0774305556,73.5631
2458079.0774305556,0
2458085.087650463,0
2458085.087650463,68.1383
2458093.9846643517,68.1383
2458093.9846643517,0
2458099.026828704,0
2458099.026828704,83.7479
2458099.935740741,83.7479
2458099.935740741,0
2458099.9704050925,0
2458099.9704050925,75.6923
2458100.4636574076,75.6923
2458100.4636574076,0
2458100.576273148,0
2458100.576273148,74.7583
2458102.0589467594,74.7583
2458102.0589467594,0
