2456461.0222222223,0
2456461.0222222223,7.1000000000000005
2456480.7916666665,7.1000000000000005
2456480.7916666665,0
2456485,0
2456485,7.1000000000000005
2456526.0131944446,7.1000000000000005
2456526.0131944446,0
2456768.9305555555,0
2456768.9305555555,7.5
2456776.8541666665,7.5
2456776.8541666665,0
2457647.8854166665,0
2457647.8854166665,7.1000000000000005
2457647.9166666665,7.1000000000000005
2457647.9166666665,0
2457650.6041666665,0
2457650.6041666665,7.1000000000000005
2457650.621527778,7.1000000000000005
2457650.621527778,0
2457652.909722222,0
2457652.909722222,7.1000000000000005
2457652.965277778,7.1000000000000005
2457652.965277778,0
2457654.8958333335,0
2457654.8958333335,7.1000000000000005
2457654.921527778,7.1000000000000005
2457654.921527778,0
2457657.9131944445,0
2457657.9131944445,7.1000000000000005
2457657.9423611113,7.1000000000000005
2457657.9423611113,0
2457661.8979166667,0
2457661.8979166667,7.1000000000000005
2457661.9291666667,7.1000000000000005
2457661.9291666667,0
2457666.8854166665,0
2457666.8854166665,7.1000000000000005
2457666.9284722223,7.1000000000000005
2457666.9284722223,0
2457668.8958333335,0
2457668.8958333335,7.1000000000000005
2457668.940972222,7.1000000000000005
2457668.940972222,0
2457672.892361111,0
2457672.892361111,7.1000000000000005
2457672.9444444445,7.1000000000000005
2457672.9444444445,0
2457675.9326388887,0
2457675.9326388887,7.1000000000000005
2457675.964583333,7.1000000000000005
2457675.964583333,0
2457678.9506944446,0
2457678.9506944446,7.1000000000000005
2457678.9777777777,7.1000000000000005
2457678.9777777777,0
2457680.920138889,0
2457680.920138889,7.1000000000000005
2457680.9583333335,7.1000000000000005
2457680.9583333335,0
2457682.9458333333,0
2457682.9458333333,7.1000000000000005
2457682.9618055555,7.1000000000000005
2457682.9618055555,0
2457685.929861111,0
2457685.929861111,7.1000000000000005
2457685.9506944446,7.1000000000000005
2457685.9506944446,0
2457687.9131944445,0
2457687.9131944445,7.1000000000000005
2457687.9305555555,7.1000000000000005
2457687.9305555555,0
2457689.909722222,0
2457689.909722222,7.1000000000000005
2457689.9479166665,7.1000000000000005
2457689.9479166665,0
2457692.918055556,0
2457692.918055556,7.1000000000000005
2457692.9479166665,7.1000000000000005
2457692.9479166665,0
2457694.923611111,0
2457694.923611111,7.1000000000000005
2457694.940972222,7.1000000000000005
2457694.940972222,0
2457696.8958333335,0
2457696.8958333335,7.1000000000000005
2457696.9618055555,7.1000000000000005
2457696.9618055555,0
2457701.954861111,0
2457701.954861111,7.1000000000000005
2457701.9631944443,7.1000000000000005
2457701.9631944443,0
2457702.965277778,0
2457702.965277778,7.1000000000000005
2457702.986111111,7.1000000000000005
2457702.986111111,0
2457708.8958333335,0
2457708.8958333335,7.1000000000000005
2457708.921527778,7.1000000000000005
2457708.921527778,0
2457710.9270833335,0
2457710.9270833335,7.1000000000000005
2457710.9583333335,7.1000000000000005
2457710.9583333335,0
2457720.953472222,0
2457720.953472222,7.1000000000000005
2457720.9895833335,7.1000000000000005
2457720.9895833335,0
2457724.9638888887,0
2457724.9638888887,7.1000000000000005
2457724.986111111,7.1000000000000005
2457724.986111111,0
2457728.001388889,0
2457728.001388889,7.1000000000000005
2457728.015277778,7.1000000000000005
2457728.015277778,0
2457730.017361111,0
2457730.017361111,7.1000000000000005
2457730.0284722224,7.1000000000000005
2457730.0284722224,0
2457731.952777778,0
2457731.952777778,7.1000000000000005
2457731.9833333334,7.1000000000000005
2457731.9833333334,0
2457735.5555555555,0
2457735.5555555555,7.1000000000000005
2457735.572222222,7.1000000000000005
2457735.572222222,0
2457736.9756944445,0
2457736.9756944445,7.1000000000000005
2457737.0069444445,7.1000000000000005
2457737.0069444445,0
