2457644.0833333335,0
2457644.0833333335,41
2457644.9791666665,41
2457644.9791666665,0
2457645.0625,0
2457645.0625,41
2457645.25,41
2457645.25,0
2457645.9166666665,0
2457645.9166666665,41
2457651.2083333335,41
2457651.2083333335,0
2457653.0833333335,0
2457653.0833333335,41
2457664.6666666665,41
2457664.6666666665,0
2457664.9166666665,0
2457664.9166666665,41
2457673.8958333335,41
2457673.8958333335,0
2457673.9375,0
2457673.9375,41
2457673.9583333335,41
2457673.9583333335,0
2457674.0833333335,0
2457674.0833333335,41
2457674.6875,41
2457674.6875,0
2457674.9375,0
2457674.9375,41
2457675.0416666665,41
2457675.0416666665,0
2457675.0833333335,0
2457675.0833333335,41
2457676.1020833333,41
2457676.1020833333,0
2457679.1458333335,0
2457679.1458333335,41
2457679.7708333335,41
2457679.7708333335,0
2457679.8541666665,0
2457679.8541666665,41
2457699.9375,41
2457699.9375,0
2458029.1524189813,0
2458029.1524189813,10.2377
2458029.162928241,10.2377
2458029.162928241,0
2458030.0630092593,0
2458030.0630092593,36.0819
2458030.1731828703,36.0819
2458030.1731828703,0
2458039.0133912037,0
2458039.0133912037,59.6979
2458039.1695023146,59.6979
2458039.1695023146,0
2458043.0244560186,0
2458043.0244560186,59.3089
2458043.109953704,59.3089
2458043.109953704,0
2458043.923553241,0
2458043.923553241,42.37380000000001
2458047.1574189817,42.37380000000001
2458047.1574189817,0
2458070.874027778,0
2458070.874027778,34.8785
2458071.4896875,34.8785
2458071.4896875,0
2458071.9107291666,0
2458071.9107291666,56.746
2458079.079224537,56.746
2458079.079224537,0
2458093.051574074,0
2458093.051574074,71.1471
2458093.052384259,71.1471
2458093.052384259,0
2458093.1218402777,0
2458093.1218402777,44.199999999999996
2458093.122361111,44.199999999999996
2458093.122361111,0
2458099.018865741,0
2458099.018865741,56.6531
2458099.2314351853,56.6531
2458099.2314351853,0
2458099.973912037,0
2458099.973912037,56.35660000000001
2458102.056585648,56.35660000000001
2458102.056585648,0
