2457540.0006944444,0
2457540.0006944444,30
2457540.0006944444,30
2457540.0006944444,30
2457540.041736111,30
2457540.041736111,0
2457540.0006944444,0
2457540.0006944444,0
2457540.0006944444,0
2457540.0006944444,0
2457540.041736111,0
2457540.041736111,0
2457540.0417824076,0
2457540.0417824076,0
2457540.0835416666,0
2457540.0835416666,50
2457540.0835648146,50
2457540.0835648146,50
2457540.1251157406,50
2457540.1251157406,0
2457540.1251157406,0
2457540.1251157406,0
2457540.1908333334,0
2457540.1908333334,70
2457540.190972222,70
2457540.190972222,70
2457540.2341435184,70
2457540.2341435184,0
2457540.2341435184,0
2457540.2341435184,0
2457540.9172453703,0
2457540.9172453703,58.00000000000001
2457540.9172453703,58.00000000000001
2457540.9172453703,58.00000000000001
2457541.923125,58.00000000000001
2457541.923125,0
2457541.923148148,0
2457541.923148148,0
2457542.966666667,0
2457542.966666667,0
2457613.142361111,0
2457613.142361111,85.71429999999998
2457613.1666666665,85.71429999999998
2457613.1666666665,0
2457654.0833333335,0
2457654.0833333335,25
2457654.1666666665,25
2457654.1666666665,0
2457701.972222222,0
2457701.972222222,85.71429999999998
2457702.0208333335,85.71429999999998
2457702.0208333335,0
2458029.1721296296,0
2458029.1721296296,-66.5629
2458029.209409722,-66.5629
2458029.209409722,0
2458030.1349421297,0
2458030.1349421297,-45.56999999999999
2458030.1675925925,-45.56999999999999
2458030.1675925925,0
2458038.1224074075,0
2458038.1224074075,-90.4511
2458038.193587963,-90.4511
2458038.193587963,0
2458039.1547685186,0
2458039.1547685186,-53.2875
2458039.1806944446,-53.2875
2458039.1806944446,0
2458043.9637268516,0
2458043.9637268516,-44.96960000000001
2458046.001122685,-44.96960000000001
2458046.001122685,0
2458057.9061458334,0
2458057.9061458334,-29.0624
2458058.0041203704,-29.0624
2458058.0041203704,0
2458085.0522916666,0
2458085.0522916666,-68.5653
2458093.9807060184,-68.5653
2458093.9807060184,0
