2457950.8333333335,0
2457950.8333333335,50
2457950.875,50
2457950.875,70
2457950.9166666665,70
2457950.9166666665,90
2457950.9583333335,90
2457950.9583333335,0
2457951.0854166667,0
2457951.0854166667,90
2457952.0854166667,90
2457952.0854166667,0
